{
    "register": {
        "input": {
            "username": "user1",
            "password": "123456",
            "full_name": "nguyen user1",
            "phone": "0326720089",
            "email": "haokn97@gmail.com",
            "confirm_password": "123456"
        },
        "output_error": {
            "success": false,
            "err_code": 1,
            "message": {
                "error_message": "Email hoặc số điện thoại này đã được đăng ký"
            }
        },
        "output_success": {
            "success": true,
            "err_code": 0,
            "data": {
                "data": 18,
                "is_exists": false
            },
            "message": "OK"
        }
    },
    "login": {
        "username": "user1"
    },
    "step1": {
        "input": {
            "customer_id": 8,
            "sender_fullName": "Nguyễn Văn A",
            "sender_phone": "012345678",
            "sender_date": "26-10-2019",
            "sender_email": "haokn97@gmail.com",
            "sender_time": "13:00:00",
            "address_from": "Pearl Plaza Apartment, 561A Điện Biên Phủ, Phường 25, Bình Thạnh, Hồ Chí Minh, Vietnam",
            "receiver_fullname": "Nguyễn Văn D",
            "receiver_phone": "012345679",
            "receiver_email": "n@gmail.com",
            "receiver_date": "2019-10-26",
            "receiver_time": "14:00:00",
            "address_to": "Lô J, Thanh Đa, Phường 27, Bình Thạnh, Hồ Chí Minh, Vietnam"
        },
        "output": {
            "success": true,
            "error_code": 0,
            "data": {
                "customer_id": 8,
                "places": {
                    "origin": "82/2/16 Đinh Bộ Lĩnh, Phường 26, Bình thạnh, Hồ chí minh, Việt Nam",
                    "destination": "143/3 Ung văn khiêm, Phường 25, Bình thạnh, Hồ chí minh, Việt Nam"
                },
                "location": {
                    "origin": {
                        "lat": 10.8078005000000008095639714156277477741241455078125,
                        "lng": 106.7100042000000001962689566425979137420654296875
                    },
                    "destination": {
                        "lat": 10.802022799999999591591404168866574764251708984375,
                        "lng": 106.72306109999999534920789301395416259765625
                    }
                },
                "message": "OK"
            }
        }
    },
    "step2": {
        "input": {
            "product_infor": "Chuột",
            "description": "đây là chuột không dây",
            "mass": 12,
            "note": "chuột không dây đắt lắm không để mất"
        },
        "output": {
            "success": true,
            "error_code": 0,
            "data": [],
            "message": "OK"
        }
    },
    "step3": {
        "input": [
            {
                "customer_id": 8,
                "sender_fullName": "Nguyễn Văn A",
                "sender_phone": "012345678",
                "sender_date": "26-10-2019",
                "sender_email": "haokn97@gmail.com",
                "sender_time": "13:00:00",
                "address_from": "Pearl Plaza Apartment, 561A Điện Biên Phủ, Phường 25, Bình Thạnh, Hồ Chí Minh, Vietnam",
                "receiver_fullname": "Nguyễn Văn D",
                "receiver_phone": "012345679",
                "receiver_email": "n@gmail.com",
                "receiver_date": "2019-10-26",
                "receiver_time": "14:00:00",
                "address_to": "Lô J, Thanh Đa, Phường 27, Bình Thạnh, Hồ Chí Minh, Vietnam",
                "km": 12
            },
            {
                "product_infor": "Chuột",
                "mass": 12,
                "note": "Đây là chuột không dây ko màu"
            },
            {
                "distance": 3.275,
                "fee": 56.775
            }
        ],
        "output": {
            "success": true,
            "err_code": 0,
            "data": [
                {
                    "customer_id": 4,
                    "sender_fullname": "Nguyễn Văn A",
                    "sender_phone": "012345678",
                    "sender_date": "26-10-2019",
                    "sender_email": "haokn97@gmail.com",
                    "sender_time": "13:00:00",
                    "address_from": "Pearl Plaza Apartment, 561A Điện Biên Phủ, Phường 25, Bình Thạnh, Hồ Chí Minh, Vietnam",
                    "receiver_fullname": "Nguyễn Văn B",
                    "receiver_phone": "012345679",
                    "receiver_email": "n@gmail.com",
                    "receiver_date": "2019-10-26",
                    "receiver_time": "14:00:00",
                    "address_to": "Lô J, Thanh Đa, Phường 27, Bình Thạnh, Hồ Chí Minh, Vietnam",
                    "km": "12"
                },
                {
                    "product_infor": "chuột",
                    "mass": 12,
                    "note": ""
                },
                {
                    "distance": 3.274999999999999911182158029987476766109466552734375,
                    "fee": 56.77499999999999857891452847979962825775146484375
                }
            ],
            "message": "OK"
        }
    },
    "step4": {
        "input": [
            {
                "customer_id": 3,
                "member_id": 8,
                "sender_fullname": "Nguyễn Văn e",
                "sender_phone": "012345678",
                "sender_date": "2019-10-26",
                "sender_time": "13:00:00",
                "address_from": "Pearl Plaza Apartment, 561A Điện Biên Phủ, Phường 25, Bình Thạnh, Hồ Chí Minh, Vietnam",
                "receiver_fullname": "Nguyễn Văn B",
                "receiver_phone": "012345679",
                "receiver_date": "2019-10-26",
                "receiver_time": "14:00:00",
                "address_to": "Lô J, Thanh Đa, Phường 27, Bình Thạnh, Hồ Chí Minh, Vietnam"
            },
            {
                "product_infor": "Sản phẩm A",
                "mass": 12,
                "note": ""
            }
        ],
        "output": {}
    }
}